\relax 
\providecommand\hyper@newdestlabel[2]{}
\providecommand\HyperFirstAtBeginDocument{\AtBeginDocument}
\HyperFirstAtBeginDocument{\ifx\hyper@anchor\@undefined
\global\let\oldcontentsline\contentsline
\gdef\contentsline#1#2#3#4{\oldcontentsline{#1}{#2}{#3}}
\global\let\oldnewlabel\newlabel
\gdef\newlabel#1#2{\newlabelxx{#1}#2}
\gdef\newlabelxx#1#2#3#4#5#6{\oldnewlabel{#1}{{#2}{#3}}}
\AtEndDocument{\ifx\hyper@anchor\@undefined
\let\contentsline\oldcontentsline
\let\newlabel\oldnewlabel
\fi}
\fi}
\global\let\hyper@last\relax 
\gdef\HyperFirstAtBeginDocument#1{#1}
\providecommand\HyField@AuxAddToFields[1]{}
\providecommand\HyField@AuxAddToCoFields[2]{}
\citation{Gobert:2018}
\citation{Spears:2016}
\citation{Spears:2016}
\citation{Hassler:2016}
\citation{Krauss:2012}
\@writefile{toc}{\contentsline {section}{\numberline {1}Introduction}{1}{section.1}\protected@file@percent }
\@writefile{lof}{\contentsline {figure}{\numberline {1}{\ignorespaces Schema of Selective Laser Melting process \cite  {Spears:2016}. A laser melts selected parts of a powder layer. The build plate gets lowered once a melt cycle is completed. Afterwards, the piston with the powder reservoir goes up so that the recoater can distribute it while spare grains drops down into a separate container.\relax }}{1}{figure.caption.2}\protected@file@percent }
\providecommand*\caption@xref[2]{\@setref\relax\@undefined{#1}}
\newlabel{fig:SLM}{{1}{1}{Schema of Selective Laser Melting process \cite {Spears:2016}. A laser melts selected parts of a powder layer. The build plate gets lowered once a melt cycle is completed. Afterwards, the piston with the powder reservoir goes up so that the recoater can distribute it while spare grains drops down into a separate container.\relax }{figure.caption.2}{}}
\@writefile{toc}{\contentsline {section}{\numberline {2}Related Work}{1}{section.3}\protected@file@percent }
\@writefile{toc}{\contentsline {subsection}{\numberline {2.1}Thermography}{1}{subsection.4}\protected@file@percent }
\citation{Zenzinger:2015}
\citation{Mankovich:1990}
\citation{Berry:1997}
\citation{Zanini:2019,Zekavat:2018}
\citation{Baum:2008}
\citation{Irimia:2011}
\citation{Lindemann:2013}
\@writefile{toc}{\contentsline {subsection}{\numberline {2.2}Optical Tomography}{2}{subsection.5}\protected@file@percent }
\@writefile{toc}{\contentsline {subsection}{\numberline {2.3}X-ray micro-computed tomography}{2}{subsection.6}\protected@file@percent }
\@writefile{toc}{\contentsline {subsection}{\numberline {2.4}Visualization}{2}{subsection.7}\protected@file@percent }
\@writefile{lof}{\contentsline {figure}{\numberline {2}{\ignorespaces Digital image of the specimen and real photo in comparison.\relax }}{2}{figure.caption.10}\protected@file@percent }
\newlabel{fig:Specimen}{{2}{2}{Digital image of the specimen and real photo in comparison.\relax }{figure.caption.10}{}}
\@writefile{toc}{\contentsline {section}{\numberline {3}Data}{2}{section.8}\protected@file@percent }
\newlabel{section:data}{{3}{2}{Data}{section.8}{}}
\@writefile{toc}{\contentsline {subsection}{\numberline {3.1}Specimen}{2}{subsection.9}\protected@file@percent }
\@writefile{toc}{\contentsline {subsection}{\numberline {3.2}Thermography}{2}{subsection.11}\protected@file@percent }
\newlabel{subsec:Thermography}{{3.2}{2}{Thermography}{subsection.11}{}}
\citation{Klein:2010}
\citation{Craeghs:2011}
\@writefile{toc}{\contentsline {subsection}{\numberline {3.3}Optical Tomography}{3}{subsection.12}\protected@file@percent }
\@writefile{toc}{\contentsline {subsection}{\numberline {3.4}X-ray micro-computed tomography}{3}{subsection.13}\protected@file@percent }
\@writefile{toc}{\contentsline {section}{\numberline {4}Preliminary Methods}{3}{section.14}\protected@file@percent }
\@writefile{toc}{\contentsline {section}{\numberline {5}Preliminary Results}{3}{section.16}\protected@file@percent }
\newlabel{p-results}{{5}{3}{Preliminary Results}{section.16}{}}
\@writefile{lof}{\contentsline {figure}{\numberline {3}{\ignorespaces Volume rendering of the overlap from $\mu $CT and thermography. Blue - $\mu $CT defects, - Red thermography defects.\relax }}{3}{figure.caption.15}\protected@file@percent }
\newlabel{fig:Overlap_CT_thermography}{{3}{3}{Volume rendering of the overlap from $\mu $CT and thermography. Blue - $\mu $CT defects, - Red thermography defects.\relax }{figure.caption.15}{}}
\@writefile{toc}{\contentsline {section}{\numberline {6}Proposed Work}{3}{section.24}\protected@file@percent }
\citation{Kirmizibayrak:2012}
\citation{Baum:2008}
\citation{King:2015}
\bibstyle{abbrv-doi}
\bibdata{Proposal}
\bibcite{Baum:2008}{1}
\bibcite{Berry:1997}{2}
\bibcite{Gobert:2018}{3}
\bibcite{Craeghs:2011}{4}
\bibcite{Spears:2016}{5}
\bibcite{Hassler:2016}{6}
\bibcite{Irimia:2011}{7}
\newlabel{fig:Tomo_Thermo}{{4a}{4}{Subfigure 4a}{subfigure.21}{}}
\newlabel{sub@fig:Tomo_Thermo}{{(a)}{a}{Subfigure 4a\relax }{subfigure.21}{}}
\newlabel{fig:CT}{{4b}{4}{Subfigure 4b}{subfigure.22}{}}
\newlabel{sub@fig:CT}{{(b)}{b}{Subfigure 4b\relax }{subfigure.22}{}}
\@writefile{lof}{\contentsline {figure}{\numberline {4}{\ignorespaces \relax }}{4}{figure.caption.20}\protected@file@percent }
\newlabel{fig:Temperature_profile}{{4}{4}{\relax }{figure.caption.20}{}}
\@writefile{lof}{\contentsline {subfigure}{\numberline{(a)}{\ignorespaces {Comparison of a major defect as seen in layer 145 in thermography (left) and optical tomography (right).}}}{4}{subfigure.4.1}\protected@file@percent }
\@writefile{lof}{\contentsline {subfigure}{\numberline{(b)}{\ignorespaces {Volume rendering of $\mu $CT scan of the specimen showing a clearly visible dent on top of the right tower. }}}{4}{subfigure.4.2}\protected@file@percent }
\@writefile{lof}{\contentsline {subfigure}{\numberline{(c)}{\ignorespaces {Temperature profile of a single point on the specimen recorded by the thermography camera.}}}{4}{subfigure.4.3}\protected@file@percent }
\@writefile{toc}{\contentsline {section}{\numberline {7}Discussion}{4}{section.25}\protected@file@percent }
\@writefile{toc}{\contentsline {section}{\numberline {8}Questions for the panel}{4}{section.26}\protected@file@percent }
\@writefile{toc}{\contentsline {section}{\numberline {9}Conclusion}{4}{section.29}\protected@file@percent }
\bibcite{King:2015}{8}
\bibcite{Kirmizibayrak:2012}{9}
\bibcite{Krauss:2012}{10}
\bibcite{Lindemann:2013}{11}
\bibcite{Mankovich:1990}{12}
\bibcite{Klein:2010}{13}
\bibcite{Zanini:2019}{14}
\bibcite{Zekavat:2018}{15}
\bibcite{Zenzinger:2015}{16}
